Indexes generation...
Whoosh
197.024040937

ElasticSearch
56.0846140385



Search...
Query: Edward Snowden
with Whoosh
0.0134670734406
0.00796294212341
0.00795412063599
0.00811314582825
0.00810718536377

with ElasticSearch
0.0482449531555
0.0591111183167
0.0442450046539
0.0511319637299
0.0456249713898


Query: Saint-Pierre-et-Miquelon
with Whoosh
0.00863313674927
0.00820684432983
0.00815606117249
0.00763082504272
0.00754308700562

with ElasticSearch
0.308684110641
0.297341108322
0.336125135422
0.32342004776
0.328269958496


Query: micropatronage
with Whoosh
0.00235199928284
0.00130891799927
0.0014488697052
0.00166296958923
0.00130915641785

with ElasticSearch
0.00194191932678
0.0019211769104
0.0011739730835
0.00115418434143
0.00128579139709
